experimental_data/raw/deterministic/alento_02(1).csv

Record Length,2500,Points,-500.000000000E-3,0.0,,Record Length,2500,Points,-500.000000000E-3,-4.00000019E-3,
Sample Interval,399.99998990E-6,s,-499.599993229E-3,16.0000008E-3,,Sample Interval,399.99998990E-6,s,-499.599993229E-3,20.0000014E-3,
Trigger Point,1.2500001E3,Samples,-499.199986458E-3,0.0,,Trigger Point,1.2500001E3,Samples,-499.199986458E-3,-4.00000019E-3,
,,,-498.800009489E-3,0.0,,,,,-498.800009489E-3,12.0000001E-3,
,,,-498.400002718E-3,0.0,,,,,-498.400002718E-3,0.0,
,,,-497.999995947E-3,8.000000380E-3,,,,,-497.999995947E-3,8.000000380E-3,
Source,CH1,,-497.599989176E-3,0.0,,Source,CH2,,-497.599989176E-3,-4.00000019E-3,
Vertical Units,Volts,,-497.200012207E-3,0.0,,Vertical Units,Volts,,-497.200012207E-3,8.000000380E-3,
Vertical Scale,200.00000950E-3,,-496.800005436E-3,0.0,,Vertical Scale,100.0000047E-3,,-496.800005436E-3,12.0000001E-3,
Vertical Offset,0,,-496.399998665E-3,0.0,,Vertical Offset,0,,-496.399998665E-3,-20.0000014E-3,
Horizontal Units,s,,-495.999991894E-3,144.0000087E-3,,Horizontal Units,s,,-495.999991894E-3,16.0000008E-3,
Horizontal Scale,99.999997474E-3,,-495.600014925E-3,136.0000074E-3,,Horizontal Scale,99.999997474E-3,,-495.600014925E-3,8.000000380E-3,
Pt Fmt,Y,,-495.200008154E-3,320.00002265E-3,,Pt Fmt,Y,,-495.200008154E-3,32.00000152E-3,
Yzero,-3.56000000,,-494.800001383E-3,368.00003052E-3,,Yzero,-3.56000000,,-494.800001383E-3,-68.000003695E-3,
Probe Atten,10.0000000,,-494.399994612E-3,360.00001431E-3,,Probe Atten,10.0000000,,-494.399994612E-3,92.000007629E-3,
,,,-493.999987841E-3,360.00001431E-3,,,,,-493.999987841E-3,88.000006974E-3,
Note,TBS 1072B - 16:48:46   02/07/2026,,-493.600010872E-3,352.00002789E-3,,Note,TBS 1072B - 16:48:46   02/07/2026,,-493.600010872E-3,108.0000028E-3,
,,,-493.200004101E-3,544.000029564E-3,,,,,-493.200004101E-3,144.0000087E-3,
,,,-492.799997330E-3,1.0080000,,,,,-492.799997330E-3,164.00000453E-3,
,,,-492.399990559E-3,1.0160000,,,,,-492.399990559E-3,220.00001371E-3,
,,,-492.000013590E-3,1.0160000,,,,,-492.000013590E-3,268.00000668E-3,
,,,-491.600006819E-3,1.000000,,,,,-491.600006819E-3,304.00002003E-3,
,,,-491.200000048E-3,1.0160000,,,,,-491.200000048E-3,344.00001168E-3,
,,,-490.799993277E-3,1.0160000,,,,,-490.799993277E-3,364.00002241E-3,
,,,-490.399986506E-3,1.0160000,,,,,-490.399986506E-3,392.00001955E-3,
,,,-490.000009537E-3,1.0080000,,,,,-490.000009537E-3,404.000014067E-3,
,,,-489.600002766E-3,1.0160000,,,,,-489.600002766E-3,428.000032902E-3,
,,,-489.199995995E-3,1.0160000,,,,,-489.199995995E-3,432.000011206E-3,
,,,-488.799989223E-3,1.0160000,,,,,-488.799989223E-3,448.000013828E-3,
,,,-488.400012255E-3,1.0080000,,,,,-488.400012255E-3,436.000019312E-3,
,,,-488.000005484E-3,1.0160000,,,,,-488.000005484E-3,464.000016451E-3,
,,,-487.599998713E-3,1.0160000,,,,,-487.599998713E-3,460.000008345E-3,
,,,-487.199991941E-3,1.0160000,,,,,-487.199991941E-3,468.000024557E-3,
,,,-486.800014973E-3,1.000000,,,,,-486.800014973E-3,468.000024557E-3,
,,,-486.400008202E-3,1.0080000,,,,,-486.400008202E-3,476.000010967E-3,
,,,-486.000001431E-3,1.0160000,,,,,-486.000001431E-3,488.000035286E-3,
,,,-485.599994659E-3,1.0080000,,,,,-485.599994659E-3,472.000032663E-3,
,,,-485.199987888E-3,1.0160000,,,,,-485.199987888E-3,476.000010967E-3,
,,,-484.800010920E-3,1.0080000,,,,,-484.800010920E-3,484.000027180E-3,
,,,-484.400004148E-3,1.0160000,,,,,-484.400004148E-3,488.000035286E-3,
,,,-483.999997377E-3,1.000000,,,,,-483.999997377E-3,480.000019073E-3,
,,,-483.599990606E-3,1.0080000,,,,,-483.599990606E-3,484.000027180E-3,
,,,-483.200013638E-3,1.0160000,,,,,-483.200013638E-3,492.000013590E-3,
,,,-482.800006866E-3,1.0240000,,,,,-482.800006866E-3,488.000035286E-3,
,,,-482.400000095E-3,1.0080000,,,,,-482.400000095E-3,488.000035286E-3,
,,,-481.999993324E-3,1.0080000,,,,,-481.999993324E-3,476.000010967E-3,
,,,-481.599986553E-3,1.0080000,,,,,-481.599986553E-3,488.000035286E-3,
,,,-481.200009584E-3,1.000000,,,,,-481.200009584E-3,476.000010967E-3,
,,,-480.800002813E-3,1.0080000,,,,,-480.800002813E-3,480.000019073E-3,
,,,-480.399996042E-3,1.0160000,,,,,-480.399996042E-3,488.000035286E-3,
,,,-479.999989271E-3,1.0160000,,,,,-479.999989271E-3,484.000027180E-3,
,,,-479.600012302E-3,1.0080000,,,,,-479.600012302E-3,496.000021696E-3,
,,,-479.200005531E-3,1.0080000,,,,,-479.200005531E-3,468.000024557E-3,
,,,-478.799998760E-3,1.0080000,,,,,-478.799998760E-3,492.000013590E-3,
,,,-478.399991989E-3,1.0080000,,,,,-478.399991989E-3,480.000019073E-3,
,,,-478.000015020E-3,1.0080000,,,,,-478.000015020E-3,476.000010967E-3,
,,,-477.600008249E-3,1.0240000,,,,,-477.600008249E-3,496.000021696E-3,
,,,-477.200001478E-3,1.0160000,,,,,-477.200001478E-3,484.000027180E-3,
,,,-476.799994707E-3,1.0080000,,,,,-476.799994707E-3,488.000035286E-3,
,,,-476.399987936E-3,1.0160000,,,,,-476.399987936E-3,484.000027180E-3,
,,,-476.000010967E-3,1.0160000,,,,,-476.000010967E-3,492.000013590E-3,
,,,-475.600004196E-3,1.0080000,,,,,-475.600004196E-3,484.000027180E-3,
,,,-475.199997425E-3,1.0080000,,,,,-475.199997425E-3,484.000027180E-3,
,,,-474.799990654E-3,1.0080000,,,,,-474.799990654E-3,488.000035286E-3,
,,,-474.400013685E-3,1.0160000,,,,,-474.400013685E-3,488.000035286E-3,
,,,-474.000006914E-3,1.0160000,,,,,-474.000006914E-3,496.000021696E-3,
,,,-473.600000143E-3,1.0160000,,,,,-473.600000143E-3,488.000035286E-3,
,,,-473.199993372E-3,1.0160000,,,,,-473.199993372E-3,484.000027180E-3,
,,,-472.799986601E-3,1.0080000,,,,,-472.799986601E-3,488.000035286E-3,
,,,-472.400009632E-3,1.0160000,,,,,-472.400009632E-3,496.000021696E-3,
,,,-472.000002861E-3,1.0080000,,,,,-472.000002861E-3,484.000027180E-3,
,,,-471.599996090E-3,1.0160000,,,,,-471.599996090E-3,496.000021696E-3,
,,,-471.199989319E-3,1.0080000,,,,,-471.199989319E-3,488.000035286E-3,
,,,-470.800012350E-3,1.0160000,,,,,-470.800012350E-3,496.000021696E-3,
,,,-470.400005579E-3,1.0160000,,,,,-470.400005579E-3,488.000035286E-3,
,,,-469.999998808E-3,1.0160000,,,,,-469.999998808E-3,480.000019073E-3,
,,,-469.599992037E-3,1.0160000,,,,,-469.599992037E-3,496.000021696E-3,
,,,-469.200015068E-3,1.0160000,,,,,-469.200015068E-3,496.000021696E-3,
,,,-468.800008297E-3,1.0240000,,,,,-468.800008297E-3,496.000021696E-3,
,,,-468.400001526E-3,1.0080000,,,,,-468.400001526E-3,476.000010967E-3,
,,,-467.999994755E-3,1.0160000,,,,,-467.999994755E-3,496.000021696E-3,
,,,-467.599987984E-3,1.0080000,,,,,-467.599987984E-3,488.000035286E-3,
,,,-467.200011015E-3,1.0080000,,,,,-467.200011015E-3,480.000019073E-3,
,,,-466.800004244E-3,1.0160000,,,,,-466.800004244E-3,500.000000000E-3,
,,,-466.399997473E-3,1.0160000,,,,,-466.399997473E-3,488.000035286E-3,
,,,-465.999990702E-3,1.0080000,,,,,-465.999990702E-3,488.000035286E-3,
,,,-465.600013733E-3,1.0160000,,,,,-465.600013733E-3,484.000027180E-3,
,,,-465.200006962E-3,1.0160000,,,,,-465.200006962E-3,488.000035286E-3,
,,,-464.800000191E-3,1.0160000,,,,,-464.800000191E-3,492.000013590E-3,
,,,-464.399993420E-3,1.0240000,,,,,-464.399993420E-3,496.000021696E-3,
,,,-463.999986649E-3,1.0080000,,,,,-463.999986649E-3,488.000035286E-3,
,,,-463.600009680E-3,1.0160000,,,,,-463.600009680E-3,496.000021696E-3,
,,,-463.200002909E-3,1.0080000,,,,,-463.200002909E-3,492.000013590E-3,
,,,-462.799996138E-3,1.000000,,,,,-462.799996138E-3,476.000010967E-3,
,,,-462.399989367E-3,1.0160000,,,,,-462.399989367E-3,488.000035286E-3,
,,,-462.000012398E-3,1.000000,,,,,-462.000012398E-3,476.000010967E-3,
,,,-461.600005627E-3,1.0080000,,,,,-461.600005627E-3,476.000010967E-3,
,,,-461.199998856E-3,1.0080000,,,,,-461.199998856E-3,488.000035286E-3,
,,,-460.799992085E-3,1.0080000,,,,,-460.799992085E-3,488.000035286E-3,
,,,-460.400015116E-3,1.0160000,,,,,-460.400015116E-3,488.000035286E-3,
,,,-460.000008345E-3,1.0160000,,,,,-460.000008345E-3,492.000013590E-3,
,,,-459.600001574E-3,1.0240000,,,,,-459.600001574E-3,492.000013590E-3,
,,,-459.199994802E-3,1.0080000,,,,,-459.199994802E-3,480.000019073E-3,
,,,-458.799988031E-3,1.0080000,,,,,-458.799988031E-3,484.000027180E-3,
,,,-458.400011063E-3,1.0080000,,,,,-458.400011063E-3,484.000027180E-3,
,,,-458.000004292E-3,1.0080000,,,,,-458.000004292E-3,496.000021696E-3,
,,,-457.599997520E-3,1.0080000,,,,,-457.599997520E-3,484.000027180E-3,
,,,-457.199990749E-3,1.0080000,,,,,-457.199990749E-3,484.000027180E-3,
,,,-456.800013781E-3,1.0080000,,,,,-456.800013781E-3,484.000027180E-3,
,,,-456.400007010E-3,1.0160000,,,,,-456.400007010E-3,492.000013590E-3,
,,,-456.000000238E-3,1.0080000,,,,,-456.000000238E-3,496.000021696E-3,
,,,-455.599993467E-3,1.0160000,,,,,-455.599993467E-3,484.000027180E-3,
,,,-455.199986696E-3,1.0160000,,,,,-455.199986696E-3,496.000021696E-3,
,,,-454.800009727E-3,1.0080000,,,,,-454.800009727E-3,488.000035286E-3,
,,,-454.400002956E-3,1.0320001,,,,,-454.400002956E-3,504.000008106E-3,
,,,-453.999996185E-3,1.0160000,,,,,-453.999996185E-3,484.000027180E-3,
,,,-453.599989414E-3,1.0320001,,,,,-453.599989414E-3,496.000021696E-3,
,,,-453.200012445E-3,1.0160000,,,,,-453.200012445E-3,488.000035286E-3,
,,,-452.800005674E-3,1.0080000,,,,,-452.800005674E-3,480.000019073E-3,
,,,-452.399998903E-3,1.0160000,,,,,-452.399998903E-3,496.000021696E-3,
,,,-451.999992132E-3,1.0080000,,,,,-451.999992132E-3,488.000035286E-3,
,,,-451.600015163E-3,1.0160000,,,,,-451.600015163E-3,480.000019073E-3,
,,,-451.200008392E-3,1.0160000,,,,,-451.200008392E-3,488.000035286E-3,
,,,-450.800001621E-3,1.0160000,,,,,-450.800001621E-3,492.000013590E-3,
,,,-450.399994850E-3,1.0160000,,,,,-450.399994850E-3,484.000027180E-3,
,,,-449.999988079E-3,1.0080000,,,,,-449.999988079E-3,480.000019073E-3,
,,,-449.600011110E-3,1.0160000,,,,,-449.600011110E-3,484.000027180E-3,
,,,-449.200004339E-3,1.0160000,,,,,-449.200004339E-3,484.000027180E-3,
,,,-448.799997568E-3,1.0080000,,,,,-448.799997568E-3,488.000035286E-3,
,,,-448.399990797E-3,1.0160000,,,,,-448.399990797E-3,480.000019073E-3,
,,,-448.000013828E-3,1.0080000,,,,,-448.000013828E-3,488.000035286E-3,
,,,-447.600007057E-3,1.0080000,,,,,-447.600007057E-3,488.000035286E-3,
,,,-447.200000286E-3,1.0080000,,,,,-447.200000286E-3,484.000027180E-3,
,,,-446.799993515E-3,1.0080000,,,,,-446.799993515E-3,476.000010967E-3,
,,,-446.399986744E-3,1.0080000,,,,,-446.399986744E-3,484.000027180E-3,
,,,-446.000009775E-3,1.0080000,,,,,-446.000009775E-3,488.000035286E-3,
,,,-445.600003004E-3,1.0080000,,,,,-445.600003004E-3,488.000035286E-3,
,,,-445.199996233E-3,1.0160000,,,,,-445.199996233E-3,484.000027180E-3,
,,,-444.799989462E-3,1.0080000,,,,,-444.799989462E-3,476.000010967E-3,
,,,-444.400012493E-3,1.0080000,,,,,-444.400012493E-3,488.000035286E-3,
,,,-444.000005722E-3,1.0080000,,,,,-444.000005722E-3,484.000027180E-3,
,,,-443.599998951E-3,1.0240000,,,,,-443.599998951E-3,488.000035286E-3,
,,,-443.199992180E-3,1.0080000,,,,,-443.199992180E-3,492.000013590E-3,
,,,-442.800015211E-3,1.0160000,,,,,-442.800015211E-3,500.000000000E-3,
,,,-442.400008440E-3,1.0080000,,,,,-442.400008440E-3,484.000027180E-3,
,,,-442.000001669E-3,1.0160000,,,,,-442.000001669E-3,492.000013590E-3,
,,,-441.599994898E-3,1.0080000,,,,,-441.599994898E-3,484.000027180E-3,
,,,-441.199988127E-3,1.0160000,,,,,-441.199988127E-3,488.000035286E-3,
,,,-440.800011158E-3,1.0080000,,,,,-440.800011158E-3,488.000035286E-3,
,,,-440.400004387E-3,1.0160000,,,,,-440.400004387E-3,476.000010967E-3,
,,,-439.999997616E-3,1.0080000,,,,,-439.999997616E-3,476.000010967E-3,
,,,-439.599990845E-3,1.0160000,,,,,-439.599990845E-3,488.000035286E-3,
,,,-439.200013876E-3,1.0160000,,,,,-439.200013876E-3,500.000000000E-3,
,,,-438.800007105E-3,1.0160000,,,,,-438.800007105E-3,480.000019073E-3,
,,,-438.400000334E-3,1.0160000,,,,,-438.400000334E-3,496.000021696E-3,
,,,-437.999993563E-3,1.0160000,,,,,-437.999993563E-3,496.000021696E-3,
,,,-437.599986792E-3,1.0160000,,,,,-437.599986792E-3,492.000013590E-3,
,,,-437.200009823E-3,1.0160000,,,,,-437.200009823E-3,484.000027180E-3,
,,,-436.800003052E-3,1.0160000,,,,,-436.800003052E-3,488.000035286E-3,
,,,-436.399996281E-3,1.0080000,,,,,-436.399996281E-3,488.000035286E-3,
,,,-435.999989510E-3,1.0080000,,,,,-435.999989510E-3,480.000019073E-3,
,,,-435.600012541E-3,1.0240000,,,,,-435.600012541E-3,504.000008106E-3,
,,,-435.200005770E-3,1.0160000,,,,,-435.200005770E-3,496.000021696E-3,
,,,-434.799998999E-3,1.0160000,,,,,-434.799998999E-3,484.000027180E-3,
,,,-434.399992228E-3,1.0160000,,,,,-434.399992228E-3,492.000013590E-3,
,,,-434.000015259E-3,1.0160000,,,,,-434.000015259E-3,488.000035286E-3,
,,,-433.600008488E-3,1.0240000,,,,,-433.600008488E-3,496.000021696E-3,
,,,-433.200001717E-3,1.0160000,,,,,-433.200001717E-3,492.000013590E-3,
,,,-432.799994946E-3,1.0080000,,,,,-432.799994946E-3,480.000019073E-3,
,,,-432.399988174E-3,1.0080000,,,,,-432.399988174E-3,488.000035286E-3,
,,,-432.000011206E-3,1.0160000,,,,,-432.000011206E-3,488.000035286E-3,
,,,-431.600004435E-3,1.0160000,,,,,-431.600004435E-3,492.000013590E-3,
,,,-431.199997663E-3,1.0080000,,,,,-431.199997663E-3,496.000021696E-3,
,,,-430.799990892E-3,1.0160000,,,,,-430.799990892E-3,480.000019073E-3,
,,,-430.400013924E-3,1.0080000,,,,,-430.400013924E-3,484.000027180E-3,
,,,-430.000007153E-3,1.0080000,,,,,-430.000007153E-3,488.000035286E-3,
,,,-429.600000381E-3,1.0160000,,,,,-429.600000381E-3,484.000027180E-3,
,,,-429.199993610E-3,1.0160000,,,,,-429.199993610E-3,496.000021696E-3,
,,,-428.800016642E-3,1.0160000,,,,,-428.800016642E-3,484.000027180E-3,
,,,-428.400009871E-3,1.0080000,,,,,-428.400009871E-3,476.000010967E-3,
,,,-428.000003099E-3,1.0160000,,,,,-428.000003099E-3,472.000032663E-3,
,,,-427.599996328E-3,1.0160000,,,,,-427.599996328E-3,500.000000000E-3,
,,,-427.199989557E-3,1.0160000,,,,,-427.199989557E-3,488.000035286E-3,
,,,-426.800012589E-3,1.0240000,,,,,-426.800012589E-3,492.000013590E-3,
,,,-426.400005817E-3,1.0080000,,,,,-426.400005817E-3,488.000035286E-3,
,,,-425.999999046E-3,1.0160000,,,,,-425.999999046E-3,484.000027180E-3,
,,,-425.599992275E-3,1.0160000,,,,,-425.599992275E-3,492.000013590E-3,
,,,-425.200015306E-3,1.0080000,,,,,-425.200015306E-3,484.000027180E-3,
,,,-424.800008535E-3,1.0160000,,,,,-424.800008535E-3,476.000010967E-3,
,,,-424.400001764E-3,1.0160000,,,,,-424.400001764E-3,480.000019073E-3,
,,,-423.999994993E-3,1.0160000,,,,,-423.999994993E-3,492.000013590E-3,
,,,-423.599988222E-3,1.0080000,,,,,-423.599988222E-3,492.000013590E-3,
,,,-423.200011253E-3,1.0160000,,,,,-423.200011253E-3,492.000013590E-3,
,,,-422.800004482E-3,1.0080000,,,,,-422.800004482E-3,484.000027180E-3,
,,,-422.399997711E-3,1.0080000,,,,,-422.399997711E-3,484.000027180E-3,
,,,-421.999990940E-3,1.0160000,,,,,-421.999990940E-3,496.000021696E-3,
,,,-421.600013971E-3,1.0080000,,,,,-421.600013971E-3,488.000035286E-3,
,,,-421.200007200E-3,1.0160000,,,,,-421.200007200E-3,488.000035286E-3,
,,,-420.800000429E-3,1.0160000,,,,,-420.800000429E-3,488.000035286E-3,
,,,-420.399993658E-3,1.0080000,,,,,-420.399993658E-3,476.000010967E-3,
,,,-420.000016689E-3,1.0240000,,,,,-420.000016689E-3,484.000027180E-3,
,,,-419.600009918E-3,1.0240000,,,,,-419.600009918E-3,496.000021696E-3,
,,,-419.200003147E-3,1.000000,,,,,-419.200003147E-3,476.000010967E-3,
,,,-418.799996376E-3,1.0160000,,,,,-418.799996376E-3,480.000019073E-3,
,,,-418.399989605E-3,1.0160000,,,,,-418.399989605E-3,492.000013590E-3,
,,,-418.000012636E-3,1.0080000,,,,,-418.000012636E-3,488.000035286E-3,
,,,-417.600005865E-3,1.0160000,,,,,-417.600005865E-3,492.000013590E-3,
,,,-417.199999094E-3,1.0160000,,,,,-417.199999094E-3,488.000035286E-3,
,,,-416.799992323E-3,1.0160000,,,,,-416.799992323E-3,484.000027180E-3,
,,,-416.400015354E-3,1.0240000,,,,,-416.400015354E-3,496.000021696E-3,
,,,-416.000008583E-3,1.0160000,,,,,-416.000008583E-3,488.000035286E-3,
,,,-415.600001812E-3,1.0160000,,,,,-415.600001812E-3,484.000027180E-3,
,,,-415.199995041E-3,1.0160000,,,,,-415.199995041E-3,492.000013590E-3,
,,,-414.799988270E-3,1.0080000,,,,,-414.799988270E-3,484.000027180E-3,
,,,-414.400011301E-3,1.0160000,,,,,-414.400011301E-3,484.000027180E-3,
,,,-414.000004530E-3,1.0080000,,,,,-414.000004530E-3,488.000035286E-3,
,,,-413.599997759E-3,1.0080000,,,,,-413.599997759E-3,488.000035286E-3,
,,,-413.199990988E-3,1.0160000,,,,,-413.199990988E-3,496.000021696E-3,
,,,-412.800014019E-3,1.0160000,,,,,-412.800014019E-3,484.000027180E-3,
,,,-412.400007248E-3,1.0160000,,,,,-412.400007248E-3,476.000010967E-3,
,,,-412.000000477E-3,1.0160000,,,,,-412.000000477E-3,480.000019073E-3,
,,,-411.599993706E-3,1.0080000,,,,,-411.599993706E-3,488.000035286E-3,
,,,-411.200016737E-3,1.0080000,,,,,-411.200016737E-3,484.000027180E-3,
,,,-410.800009966E-3,1.0160000,,,,,-410.800009966E-3,492.000013590E-3,
,,,-410.400003195E-3,1.0080000,,,,,-410.400003195E-3,492.000013590E-3,
,,,-409.999996424E-3,1.0080000,,,,,-409.999996424E-3,492.000013590E-3,
,,,-409.599989653E-3,1.0080000,,,,,-409.599989653E-3,480.000019073E-3,
,,,-409.200012684E-3,1.0160000,,,,,-409.200012684E-3,496.000021696E-3,
,,,-408.800005913E-3,1.0080000,,,,,-408.800005913E-3,480.000019073E-3,
,,,-408.399999142E-3,1.0160000,,,,,-408.399999142E-3,480.000019073E-3,
,,,-407.999992371E-3,1.0080000,,,,,-407.999992371E-3,484.000027180E-3,
,,,-407.600015402E-3,1.0080000,,,,,-407.600015402E-3,488.000035286E-3,
,,,-407.200008631E-3,1.0080000,,,,,-407.200008631E-3,492.000013590E-3,
,,,-406.800001860E-3,1.0160000,,,,,-406.800001860E-3,488.000035286E-3,
,,,-406.399995089E-3,1.0080000,,,,,-406.399995089E-3,488.000035286E-3,
,,,-405.999988317E-3,1.0160000,,,,,-405.999988317E-3,492.000013590E-3,
,,,-405.600011349E-3,1.0080000,,,,,-405.600011349E-3,480.000019073E-3,
,,,-405.200004578E-3,1.0080000,,,,,-405.200004578E-3,492.000013590E-3,
,,,-404.799997807E-3,1.0160000,,,,,-404.799997807E-3,492.000013590E-3,
,,,-404.399991035E-3,1.0080000,,,,,-404.399991035E-3,472.000032663E-3,
,,,-404.000014067E-3,1.0160000,,,,,-404.000014067E-3,488.000035286E-3,
,,,-403.600007296E-3,1.0160000,,,,,-403.600007296E-3,484.000027180E-3,
,,,-403.20000052E-3,1.0080000,,,,,-403.20000052E-3,480.000019073E-3,
,,,-402.79999375E-3,1.0080000,,,,,-402.79999375E-3,496.000021696E-3,
,,,-402.40001678E-3,1.0080000,,,,,-402.40001678E-3,492.000013590E-3,
,,,-402.00001001E-3,1.0160000,,,,,-402.00001001E-3,492.000013590E-3,
,,,-401.60000324E-3,1.0160000,,,,,-401.60000324E-3,492.000013590E-3,
,,,-401.19999647E-3,1.0080000,,,,,-401.19999647E-3,484.000027180E-3,
,,,-400.79998970E-3,1.0160000,,,,,-400.79998970E-3,496.000021696E-3,
,,,-400.40001273E-3,1.0080000,,,,,-400.40001273E-3,484.000027180E-3,
,,,-400.00000596E-3,1.0080000,,,,,-400.00000596E-3,488.000035286E-3,
,,,-399.59999919E-3,1.0160000,,,,,-399.59999919E-3,496.000021696E-3,
,,,-399.19999242E-3,1.0160000,,,,,-399.19999242E-3,492.000013590E-3,
,,,-398.80001545E-3,1.0080000,,,,,-398.80001545E-3,484.000027180E-3,
,,,-398.40000868E-3,1.0080000,,,,,-398.40000868E-3,476.000010967E-3,
,,,-398.00000191E-3,1.0080000,,,,,-398.00000191E-3,488.000035286E-3,
,,,-397.59999514E-3,1.0160000,,,,,-397.59999514E-3,488.000035286E-3,
,,,-397.19998837E-3,1.0240000,,,,,-397.19998837E-3,504.000008106E-3,
,,,-396.80001140E-3,1.0080000,,,,,-396.80001140E-3,488.000035286E-3,
,,,-396.40000463E-3,1.0160000,,,,,-396.40000463E-3,496.000021696E-3,
,,,-395.99999785E-3,1.0160000,,,,,-395.99999785E-3,492.000013590E-3,
,,,-395.59999108E-3,1.0160000,,,,,-395.59999108E-3,480.000019073E-3,
,,,-395.20001411E-3,1.0080000,,,,,-395.20001411E-3,492.000013590E-3,
,,,-394.80000734E-3,1.0080000,,,,,-394.80000734E-3,492.000013590E-3,
,,,-394.40000057E-3,1.0080000,,,,,-394.40000057E-3,488.000035286E-3,
,,,-393.99999380E-3,1.0080000,,,,,-393.99999380E-3,484.000027180E-3,
,,,-393.60001683E-3,1.0240000,,,,,-393.60001683E-3,492.000013590E-3,
,,,-393.20001006E-3,1.0160000,,,,,-393.20001006E-3,484.000027180E-3,
,,,-392.80000329E-3,1.0160000,,,,,-392.80000329E-3,476.000010967E-3,
,,,-392.39999652E-3,1.0160000,,,,,-392.39999652E-3,492.000013590E-3,
,,,-391.99998975E-3,1.0240000,,,,,-391.99998975E-3,492.000013590E-3,
,,,-391.60001278E-3,1.0160000,,,,,-391.60001278E-3,488.000035286E-3,
,,,-391.20000601E-3,1.0080000,,,,,-391.20000601E-3,492.000013590E-3,
,,,-390.79999924E-3,1.0160000,,,,,-390.79999924E-3,484.000027180E-3,
,,,-390.39999247E-3,1.0080000,,,,,-390.39999247E-3,496.000021696E-3,
